3000,9155.95,4619.65,1.98196
3000,9171.36,4605.7,1.99131
3000,9222.18,4766.53,1.93478
3000,9202.11,4656.4,1.97623
3000,9180.92,4618.23,1.98797
3000,9202.76,4676.6,1.96783
3000,9207,4663.44,1.97429
3000,9178.46,4686.17,1.95863
3000,9273.9,4678.86,1.98209
3000,9225.71,4598.93,2.00605
