100,7.154,2.571,2.78257
100,7.219,3.129,2.30713
100,7.013,8.303,0.844634
100,6.88,3.086,2.22942
100,6.847,5.998,1.14155
100,7.101,5.575,1.27372
100,7.074,5.623,1.25805
100,7.084,5.719,1.23868
100,7.045,5.839,1.20654
100,7.01,5.587,1.2547
