3000,9186.64,3164.63,2.90291
3000,9169.3,3138.6,2.92146
3000,9197.08,3146.35,2.9231
3000,9194.27,3131.09,2.93645
3000,9162.39,3134.63,2.92295
3000,9173.47,3140.14,2.92136
3000,9183.25,3201.49,2.86843
3000,9165.87,3191,2.87241
3000,9161.23,3177.58,2.88309
3000,9158.05,3282.22,2.7902
